{
  "users": [
    {
      "lastname": "Empty",
      "name": "Adam",
      "id": 1
    },
    {
      "name": "Alice",
      "lastname": "FetchAPI",
      "id": 2
    },
    {
      "name": "Alice",
      "lastname": "FetchAPI",
      "id": 3
    },
    {
      "name": "Alice",
      "lastname": "FetchAPI",
      "id": 4
    },
    {
      "name": "Alice",
      "lastname": "FetchAPI",
      "id": 5
    },
    {
      "name": "Alice",
      "lastname": "FetchAPI",
      "id": 6
    },
    {
      "name": "Alice",
      "lastname": "FetchAPI",
      "id": 7
    },
    {
      "name": "Alice",
      "lastname": "FetchAPI",
      "id": 8
    },
    {
      "name": "Alice",
      "lastname": "FetchAPI",
      "id": 9
    },
    {
      "name": "Alice",
      "lastname": "FetchAPI",
      "id": 10
    },
    {
      "name": "Alice",
      "lastname": "FetchAPI",
      "id": 11
    },
    {
      "name": "Alice",
      "lastname": "FetchAPI",
      "id": 12
    },
    {
      "name": "Alice",
      "lastname": "FetchAPI",
      "id": 13
    },
    {
      "name": "Alice",
      "lastname": "FetchAPI",
      "id": 14
    },
    {
      "name": "Alice",
      "lastname": "FetchAPI",
      "id": 15
    },
    {
      "name": "Alice",
      "lastname": "FetchAPI",
      "id": 16
    }
  ]
}